<?xml version="1.0" encoding="utf-8"?>
<!-- Generator: Adobe Illustrator 16.0.0, SVG Export Plug-In . SVG Version: 6.00 Build 0)  -->
<!DOCTYPE svg PUBLIC "-//W3C//DTD SVG 1.1//EN" "http://www.w3.org/Graphics/SVG/1.1/DTD/svg11.dtd">
<svg version="1.1" id="Layer_1" xmlns="http://www.w3.org/2000/svg" xmlns:xlink="http://www.w3.org/1999/xlink" x="0px" y="0px"
	 width="40px" height="40px" viewBox="0 0 40 40" enable-background="new 0 0 40 40" xml:space="preserve">
<path fill="#ABABAB" d="M18.587,18.12H8.821c-0.392,0-0.736,0.259-0.845,0.635l-1.874,6.489l13.14,1.438l1.03-4.937
	C19.629,20.602,19.04,19.375,18.587,18.12z"/>
<path fill="#ABABAB" d="M30.857,27.953l3.946,0.432l-1.178-4.081c-0.159,0.233-0.315,0.461-0.471,0.68
	C32.357,26.105,31.562,27.113,30.857,27.953z"/>
<path fill="#ABABAB" d="M22.301,24.942l-0.422,2.028l2.131,0.233c-0.535-0.666-1.105-1.412-1.675-2.215
	C22.324,24.975,22.312,24.959,22.301,24.942z"/>
<path fill="#ABABAB" d="M3.574,33.995c-0.076,0.268-0.023,0.553,0.143,0.772c0.167,0.221,0.427,0.352,0.704,0.352h13.057l1.22-5.841
	l-13.338-1.46L3.574,33.995z"/>
<path fill="#ABABAB" d="M35.595,31.127l-14.259-1.561l-1.161,5.555h15.403l0,0c0.486,0,0.882-0.394,0.882-0.878
	c0-0.105-0.019-0.206-0.054-0.302L35.595,31.127z"/>
<path fill="#ABABAB" d="M27.38,29.072c0.093,0.099,0.225,0.156,0.361,0.156c0.14,0,0.271-0.058,0.364-0.156
	c0.804-0.854,2.387-2.619,3.975-4.854c1.999-2.815,4.38-6.941,4.38-10.619c0-4.808-3.911-8.719-8.719-8.719
	c-4.807,0-8.717,3.912-8.717,8.719c0,3.68,2.385,7.81,4.387,10.626C24.997,26.46,26.577,28.221,27.38,29.072z M27.741,8.162
	c2.935,0,5.323,2.388,5.323,5.324c0,2.934-2.389,5.324-5.323,5.324s-5.323-2.39-5.323-5.324
	C22.418,10.549,24.807,8.162,27.741,8.162z"/>
</svg>
