<?xml version="1.0" encoding="utf-8"?>
<!-- Generator: Adobe Illustrator 16.0.0, SVG Export Plug-In . SVG Version: 6.00 Build 0)  -->
<!DOCTYPE svg PUBLIC "-//W3C//DTD SVG 1.1//EN" "http://www.w3.org/Graphics/SVG/1.1/DTD/svg11.dtd">
<svg version="1.1" id="Layer_1" xmlns="http://www.w3.org/2000/svg" xmlns:xlink="http://www.w3.org/1999/xlink" x="0px" y="0px"
	 width="30px" height="30px" viewBox="-1.208 -3.186 30 30" enable-background="new -1.208 -3.186 30 30" xml:space="preserve">
<g>
	<path fill="#1B1464" d="M1.556,19.511c0,1.535,1.249,2.785,2.785,2.785h0.617h16.995h1.235h1.292v-1.237h-1.292v-3.094h1.292
		v-0.542h0.617h0.929v-1.237h-0.929v-3.095h0.929v-1.238h-0.929h-0.076v-0.411v-0.619v-0.026l-1.531-2.862h1.607V6.27L21.06,1.333
		H6.811l-3.674,5.79c-0.627,0.512-1.04,1.281-1.04,2.151c0,1.526,1.236,2.768,2.758,2.781c-1.024,0.411-1.752,1.412-1.752,2.582
		c0,0.85,0.391,1.603,0.992,2.113C2.676,16.877,1.556,18.06,1.556,19.511z M3.335,9.274c0-0.576,0.32-1.074,0.79-1.341h18.445v2.888
		H4.883C4.03,10.822,3.335,10.128,3.335,9.274z M5.887,13.09h0.62H23.86v3.095H6.507h-0.62c-0.853,0-1.546-0.695-1.546-1.547
		C4.341,13.785,5.035,13.09,5.887,13.09z M4.341,17.965h0.618h16.994v3.094H4.958H4.341c-0.853,0-1.547-0.692-1.547-1.548
		C2.794,18.657,3.489,17.965,4.341,17.965z"/>
</g>
</svg>
